{
  "project_info": {
    "project_number": "630187078352",
    "firebase_url": "https://admob-app-id-4354805972.firebaseio.com",
    "project_id": "admob-app-id-4354805972",
    "storage_bucket": "admob-app-id-4354805972.appspot.com"
  },
  "client": [
    {
      "client_info": {
        "mobilesdk_app_id": "1:630187078352:android:3a4bdd3188544c13",
        "android_client_info": {
          "package_name": "pl.marcinwroblewski.faceviewer"
        }
      },
      "oauth_client": [
        {
          "client_id": "630187078352-786fmsu3g6sjfadhm41taa5jkucraa51.apps.googleusercontent.com",
          "client_type": 3
        }
      ],
      "api_key": [
        {
          "current_key": "AIzaSyA4DPKwYmmmhtbN_N4ecsEVQ3Q30wTdD9A"
        }
      ],
      "services": {
        "analytics_service": {
          "status": 1
        },
        "appinvite_service": {
          "status": 1,
          "other_platform_oauth_client": []
        },
        "ads_service": {
          "status": 2
        }
      }
    }
  ],
  "configuration_version": "1"
}